…
-   Extract all conversations. Each row of the returned data frame corresponds to one conversation node in the `.its` file. The columns contain the node's attributes, such as the number of adult words and child vocalizations.

``` r
conversations <- gather_conversations(its)
conversations
#> # A tibble: 655 x 48
#>    recId blkId blkTypeId      blkType startTime endTime
#>    <int> <int>     <int>        <chr>     <dbl>   <dbl>
#>  1     1     2         1 Conversation     12.27   15.81
#>  2     1     4         2 Conversation     21.18   27.82
#>  3     1     6         3 Conversation     34.20   49.98
#>  4     1     8         4 Conversation     71.69   79.84
#>  5     1    10         5 Conversation     93.53  100.85
#>  6     1    12         6 Conversation    110.91  124.47
#>  7     1    14         7 Conversation    132.32  139.73
#>  8     1    16         8 Conversation    150.82  161.87
#>  9     1    18         9 Conversation    176.87  192.18
#> 10     1    20        10 Conversation    198.31  199.25
#> # ... with 645 more rows, and 42 more variables: startClockTime <dttm>,
#> #   endClockTime <dttm>, startClockTimeLocal <dttm>,
#> #   endClockTimeLocal <dttm>, itsId <chr>, type <chr>, average_dB <dbl>,
#> #   peak_dB <dbl>, turnTaking <int>, femaleAdultInitiation <int>,
#> #   maleAdultInitiation <int>, childResponse <int>, childInitiation <int>,
#> #   femaleAdultResponse <int>, maleAdultResponse <int>,
#> #   adultWordCnt <dbl>, femaleAdultWordCnt <dbl>, maleAdultWordCnt <dbl>,
#> #   femaleAdultUttCnt <int>, maleAdultUttCnt <int>,
#> #   femaleAdultUttLen <dbl>, maleAdultUttLen <dbl>,
…
